<?xml version="1.0" encoding="utf-8"?>
<!-- Generator: Adobe Illustrator 19.2.1, SVG Export Plug-In . SVG Version: 6.00 Build 0)  -->
<svg version="1.2" baseProfile="tiny" id="logo-associadosdainclusao" xmlns="http://www.w3.org/2000/svg" xmlns:xlink="http://www.w3.org/1999/xlink" x="0px" y="0px" viewBox="0 0 467 587" xml:space="preserve">
    <path id="mao" fill="#0B0C0D" d="M196,0c4.3,0,8.7,0,13,0c6.7,4.3,11.3,10.4,14.4,17.8c4.9,11.6,7.6,23.7,9.6,36 c6.1,36.8,7.6,74.2,12.1,111.2c1.8,15.2,3.7,30.4,8.9,44.9c1.9,5.2,4.1,10.2,8.4,13.9c4.7,4.1,8.7,3.4,11.8-2 c2.8-4.8,4.4-10,5.9-15.3c7.5-26.6,12.9-53.6,20-80.3c5.8-21.8,11.9-43.6,22.7-63.6c4.7-8.7,10.2-16.8,19.1-21.9 c13.3-7.6,26.1-1.5,28.3,13.6c2.7,19,0,37.9-2.6,56.7c-5,35.4-12.4,70.4-17.9,105.8c-1.9,12.2-4.1,24.3-2.7,36.7 c0.9,8,5.5,10.2,12.5,6c4.2-2.5,7.4-6.2,10.3-10c12-15.6,21.1-33,31.6-49.6c7.9-12.5,15.9-25,26.6-35.5c4.6-4.5,9.6-8.3,15.8-10.2 c9.5-2.8,16.7,1.7,23.3,7.8c0,3.7,0,7.3,0,11c-3,4.6-4.3,9.9-6.6,14.8c-10.8,23-22.7,45.5-32.8,68.8c-9.9,22.9-19.6,45.9-24.7,70.4 c-5.7,27.2-6.1,54.9-7.8,82.5c-1.4,23.5-3.8,46.8-10.1,69.5c-4,14.2-9.9,27.3-22.6,36c-15.8,10.7-33.7,15.2-52.3,18.1 c2.2-7.6,3.3-14.9-5.8-19.2c7.5-7.3,9.1-13,5.7-20.1c3.6-14.8,11.4-27.6,20.4-39.6c8.3-11.1,17.8-21.2,25.3-32.8 c18.5-28.6,26.4-59.5,18.8-93.3c-14.5-64.3-73.7-103.6-139.3-93.1c-70.3,11.3-115.8,86.2-93.5,153.8c7.1,21.4,19.6,39.5,34.1,56.5 c12,14,22.3,29.1,27.3,47.2c2.4,8.4,6.8,15.1,15.1,18.5c-6.2,1.6-11.4,4.5-14.5,10.4c-0.9,1.7-2,1.8-3.7,1.3 c-7.4-2-14.7-4.2-21.5-7.6c-19.9-10-35.5-25.2-49.4-42.1c-25.3-30.9-51.3-61.2-77.5-91.3C32.1,359.1,11.5,337.3,0,309 c0-1.7,0-3.3,0-5c3.1-3.7,7.3-4.6,11.8-5.1c17.9-2,33.4,4,47.5,14.5c11.3,8.4,20.6,18.9,30.5,28.8c5,4.9,10.1,9.7,16.3,13.1 c7,3.8,13.7,3.4,20.2-1.2c6.6-4.7,10.1-10.4,8.2-19.2c-2.9-13.1-7.7-25.4-13-37.6c-14.8-34.5-31.7-68.1-45.9-102.8 c-8.9-21.7-17.2-43.6-20.1-67.1c-1.1-9.4-1.1-18.7,3.7-27.2c6.4-11.5,16.6-13.2,26.6-4.8c5.4,4.6,9.6,10.1,13.5,16 c9.6,14.6,17.2,30.3,24.8,46c12.1,25.1,22.5,51.1,36.8,75.2c3.1,5.3,6.5,10.5,11.4,14.4c5.5,4.3,10.2,2.6,11.8-4.2 c1.3-5.6,1.2-11.3,1.1-16.9c-0.9-36-6.3-71.7-8.6-107.6c-1.8-27.8-3.6-55.6,0.6-83.3C179.2,21.1,182.7,7.8,196,0z" />
    <g id="lampada">
        <path fill="#3DB3C2" d="M301.6,551.2c-2.3,0.1-4.6,0.7-6.8,1.3c-15.9,4.2-31.8,8.5-47.6,12.8c-10.5,2.8-21.1,5.7-32.4,8.8 c7.4,5.1,14.8,7.8,22.4,10.1c4.2,1.3,8.8,1,12.9,3c4,0,8,0,12,0c0.9-1.4,2.4-0.9,3.6-1c16.1-2.2,30.3-8.4,42.5-19.2 c3.2-2.8,4.6-5.5,2.8-9.5C309.1,553.3,306,551,301.6,551.2z" />
        <path fill="#3DB3C2" d="M374.5,328.1c-14.5-64.3-73.7-103.6-139.3-93.1c-70.3,11.3-115.8,86.2-93.5,153.8 c7.1,21.4,19.6,39.5,34.1,56.5c12,14,22.3,29.1,27.3,47.2c2.4,8.4,6.8,15.1,15.1,18.5c21.5,2.3,43.1,0.9,64.7,1 c12.6,0.1,22.4-4.4,26.5-17.4c0.1-0.3,0.4-0.5,0.7-0.7c3.6-14.8,11.4-27.6,20.4-39.6c8.3-11.1,17.8-21.2,25.3-32.8 C374.2,392.7,382.1,361.8,374.5,328.1z M361.2,339.4c-3.9,6-9.4,10.3-15.1,14.4c-12.6,9.2-25.5,18.2-38.2,27.3 c-3.9,2.8-7.8,5.7-11.1,9.3c-1.1,1.2-2.5,2.5-1.8,4.3c0.7,2.1,2.7,2.3,4.6,2.3c8.6,0.2,16.7-2.9,25-4.6c5.7-1.2,11.4-2.6,17.2-3.2 c3.7-0.4,7.3-0.2,10.8,1.3c3.5,1.5,5,4.5,5,8c0.1,3.3-2.9,4.3-5.3,5.3c-7.1,2.8-14.3,5.6-21.6,7.8c-25.5,7.8-47.8,20.8-66.7,39.7 c-7.3,7.3-15.7,13.3-24.9,18.3c-7.5,4-14.9,4.2-22.5,0.6c-13.3-6.2-24.7-14.6-32.6-27.1c-6.2-9.8-13.5-19.1-15.5-31 c-0.7-4.5-0.6-9-1-13.5c3.3-27.1,3.2-54.5,7.5-81.5c0.5-3.3,1.3-6.5,2.9-9.5c1.5-2.8,3.4-3.3,6-1.3c5.8,4.5,9.1,10.5,10.2,17.7 c1.1,7,0.7,14,0.9,20.9c0.1,2,0.2,4,0.8,5.9c1.2,3.7,3.9,5.1,7.4,5.7c3.3,0.5,5.4-1.2,7-3.8c5.3-8.4,8.2-17.8,11.8-26.9 c6.1-15.8,11.4-32,19.5-47c2.5-4.7,5.3-9.3,9.4-12.9c3.4-3,7.2-5.4,11.8-2.8c4.2,2.4,3.7,6.8,3.1,10.8c-1.7,10.7-5.6,20.8-9.3,31 c-3,8.6-6.6,17.1-8.7,26c-0.8,3.3-2.7,7.6,0.7,9.7c3.5,2,5.9-2.1,8-4.5c11.9-13.5,23.5-27.2,35.3-40.8c5.8-6.7,12.1-12.9,19.4-18 c0.8-0.6,1.7-1.1,2.5-1.6c5.8-3.5,10.7-3.8,14-1c3.3,2.8,3.5,7.2,0.2,13.8c-6.4,12.8-16.1,23.2-25,34.2 c-6.7,8.3-13.8,16.3-19.4,25.4c-1.5,2.4-2.8,4.9-3.2,7.8c-0.6,4.5,1.2,6.1,5.4,4.3c4.1-1.8,8-4,11.9-6.3 c11.7-7,23.1-14.5,35.4-20.5c5.7-2.8,11.5-5.2,17.9-6c2.4-0.3,4.7,0,6.9,0.8C362.5,330.1,364.1,334.9,361.2,339.4z" />
        <path fill="#3DB3C2" d="M294.8,542.9c5.9-1.5,10.8-4.3,14.4-9.2c0.3-0.2,0.6-0.5,0.9-0.7c2.1-7.6,3.2-14.8-5.8-19.1 c-10.4,0.7-20.1,4.5-30,7.1c-19.2,4.9-38.3,10.1-57.4,15.2c-5.2,1.4-9.5,4-12.4,8.6c-3.6,5.5-4.1,11.9-0.9,15.9 c3.9,4.9,9,4.1,14.1,2.7C243.3,556.6,269,549.7,294.8,542.9z" />
    </g>
</svg>
